<?xml version="1.0" encoding="UTF-8" standalone="no"?>
<!-- Created with Inkscape (http://www.inkscape.org/) -->

<svg
   width="210mm"
   height="297mm"
   viewBox="0 0 210 297"
   version="1.1"
   id="svg5"
   xml:space="preserve"
   inkscape:version="1.2.2 (732a01da63, 2022-12-09)"
   sodipodi:docname="piggy_bank_tail_gitlab.svg"
   xmlns:inkscape="http://www.inkscape.org/namespaces/inkscape"
   xmlns:sodipodi="http://sodipodi.sourceforge.net/DTD/sodipodi-0.dtd"
   xmlns="http://www.w3.org/2000/svg"
   xmlns:svg="http://www.w3.org/2000/svg"><sodipodi:namedview
     id="namedview7"
     pagecolor="#ffffff"
     bordercolor="#000000"
     borderopacity="0.25"
     inkscape:showpageshadow="2"
     inkscape:pageopacity="0.0"
     inkscape:pagecheckerboard="0"
     inkscape:deskcolor="#d1d1d1"
     inkscape:document-units="mm"
     showgrid="false"
     inkscape:zoom="2"
     inkscape:cx="210.25"
     inkscape:cy="103.5"
     inkscape:window-width="1920"
     inkscape:window-height="1009"
     inkscape:window-x="-8"
     inkscape:window-y="-8"
     inkscape:window-maximized="1"
     inkscape:current-layer="layer1" /><defs
     id="defs2"><inkscape:path-effect
       effect="bspline"
       id="path-effect2574"
       is_visible="true"
       lpeversion="1"
       weight="33.333333"
       steps="2"
       helper_size="0"
       apply_no_weight="true"
       apply_with_weight="true"
       only_selected="false" /></defs><g
     inkscape:label="Layer 1"
     inkscape:groupmode="layer"
     id="layer1"><path
       style="fill:none;stroke:#000000;stroke-width:0.2;stroke-dasharray:none;stroke-opacity:1"
       d="M 20.564961,10.997703 C 21.200804,10.219723 21.18357,8.33137 20.535271,7.744669 19.767409,7.049764 18.610434,6.81745 17.578531,7.150973 16.838665,7.390107 16.51473,7.742442 15.895236,8.981848 c -0.885957,1.772513 -0.813509,1.937593 1.081744,2.464871 1.616704,0.44978 2.994293,0.27738 3.587979,-0.449016 z"
       id="path1064" /><path
       style="fill:#000000;fill-opacity:1;stroke:none;stroke-width:0.265;stroke-dasharray:none;stroke-opacity:1"
       d="M 6.172924,7.068911 C 4.869189,5.748942 3.594388,4.668967 3.340031,4.668967 c -0.58949,0 -1.097466,0.504487 -1.097466,1.089928 0,0.568671 2.267789,3.071989 4.365584,4.818985 L 8.195607,11.899879 8.369479,10.684368 8.54335,9.468855 Z"
       id="path1062" /><path
       style="fill:#000000;fill-opacity:1;stroke:none;stroke-width:0.265;stroke-dasharray:none;stroke-opacity:1"
       d="m 20.028326,23.782749 0.658162,-0.99455 -1.794535,-0.85611 c -4.455428,-2.12554 -6.864574,-6.61306 -6.052807,-11.274572 0.790176,-4.537527 4.284642,-7.038096 7.714989,-5.52069 2.566044,1.135083 3.478458,3.676625 2.233456,6.221322 -1.165969,2.38315 -3.322253,3.11511 -6.413913,2.17722 -0.714351,-0.2167 -1.344263,-0.3953 -1.399804,-0.39687 -0.30667,-0.009 0.269053,2.27935 0.642189,2.5522 0.598676,0.43776 3.058782,0.72319 4.271805,0.49562 2.098698,-0.39371 4.09845,-1.9151 5.015813,-3.81597 0.581864,-1.205683 0.776343,-3.91914 0.369292,-5.152515 C 24.799679,5.783737 22.843218,3.773767 21.255945,3.090941 15.806059,0.746462 10.460539,5.327034 10.447789,12.352439 c -0.0063,3.47163 1.651849,6.485875 3.699926,9.00185 1.284938,1.578491 4.44061,3.40348 5.05917,3.41893 0.0898,0.002 0.459451,-0.44347 0.821441,-0.99047 z"
       id="path1060" /><path
       id="path248"
       style="fill:none;stroke:#000000;stroke-width:0.2;stroke-dasharray:none;stroke-opacity:1"
       d="m 18.51415,0.1325 c -2.014117,0 -2.610271,0.28609 -3.867981,0.872298 C 12.6461,1.93701 11.22586,3.276085 10.204063,5.193173 9.73727,6.068964 9.254105,6.785841 9.130743,6.785841 9.007383,6.785841 8.134267,5.951268 7.190293,4.93169 5.160314,2.739127 4.010272,2.147404 2.546132,2.541655 1.996273,2.689716 1.276619,3.098478 0.946746,3.44961 0.30665,4.130966 -0.045294,5.803134 0.224827,6.879375 c 0.228614,0.910867 3.783928,4.622748 6.090584,6.358785 1.813114,1.364587 1.937092,1.525329 2.247408,2.911967 0.418207,1.868749 1.402363,3.765504 2.749186,5.437394 1.337616,1.66046 3.543954,3.121557 5.335075,4.202328 3.996886,2.411742 7.253036,3.355281 9.457304,3.269051 a 4.9171786,4.9171786 0 0 0 4.916496,4.886007 4.9171786,4.9171786 0 0 0 4.917012,-4.917013 4.9171786,4.9171786 0 0 0 -4.917012,-4.917012 4.9171786,4.9171786 0 0 0 -2.251026,0.548803 c -0.536311,-0.652612 -2.516485,-1.711831 -2.853055,-1.875337 0,0 -7.014555,-3.273839 -7.769035,-3.863847 l -0.630969,-0.492994 h 1.481563 c 2.902809,0 5.645696,-1.44777 7.181474,-3.790466 C 29.465983,9.624313 27.770003,3.515338 22.397117,1.011516 21.123463,0.41798 20.53399,0.1325 18.51415,0.1325 Z" /><circle
       style="fill:none;fill-opacity:1;stroke:#000000;stroke-width:0.2;stroke-dasharray:none;stroke-opacity:1"
       id="path6336-5"
       cx="31.020643"
       cy="29.02792"
       r="2.2619021" /></g></svg>
